<?xml version="1.0" encoding="UTF-8"?>
<svg width="181px" height="26px" viewBox="0 0 181 26" version="1.1" xmlns="http://www.w3.org/2000/svg" xmlns:xlink="http://www.w3.org/1999/xlink">
    <!-- Generator: Sketch 49.3 (51167) - http://www.bohemiancoding.com/sketch -->
    <title>logo-bitmark</title>
    <desc>Created with Sketch.</desc>
    <defs></defs>
    <g id="Page-1" stroke="none" stroke-width="1" fill="none" fill-rule="evenodd" opacity="0.900000036">
        <g id="1-muzeum_landing-page_footer-dk" transform="translate(-860.000000, -2530.000000)" fill="#2C315B" fill-rule="nonzero">
            <g id="section/how-we-do" transform="translate(0.000000, 2297.000000)">
                <g id="logo-bitmark" transform="translate(860.000000, 233.000000)">
                    <path d="M12.6886598,24.3285714 C6.43762887,24.3285714 1.39948454,19.3142857 1.39948454,13.1857143 C1.39948454,7.05714286 6.43762887,2.04285714 12.6886598,2.04285714 C18.9396907,2.04285714 23.9778351,7.05714286 23.9778351,13.1857143 C23.9778351,19.4071429 18.9396907,24.3285714 12.6886598,24.3285714 M12.6886598,0.65 C5.69123711,0.65 0,6.31428571 0,13.1857143 C0,20.15 5.69123711,25.7214286 12.6886598,25.7214286 C19.6860825,25.7214286 25.3773196,20.0571429 25.3773196,13.1857143 C25.4706186,6.31428571 19.6860825,0.65 12.6886598,0.65" id="Shape"></path>
                    <polygon id="Shape" points="181 2.04285714 177.641237 2.04285714 175.961856 4.64285714 172.043299 10.6785714 171.296907 11.7928571 168.124742 11.7928571 168.124742 2.04285714 165.325773 2.04285714 165.325773 24.4214286 168.124742 24.4214286 168.124742 14.5785714 171.296907 14.5785714 172.043299 15.7857143 175.961856 21.8214286 177.641237 24.4214286 181 24.4214286 173.72268 13.1857143"></polygon>
                    <path d="M136.123196,24.4214286 L139.202062,24.4214286 L130.711856,2.04285714 L127.912887,2.04285714 L119.42268,24.4214286 L122.501546,24.4214286 L125.020619,17.4571429 L133.604124,17.4571429 L136.123196,24.4214286 Z M126.046907,14.6714286 L129.312371,5.85 L132.577835,14.6714286 L126.046907,14.6714286 Z" id="Shape"></path>
                    <path d="M51.1278351,14.5785714 C53.0871134,14.5785714 54.6731959,16.1571429 54.6731959,18.1071429 C54.6731959,20.0571429 53.0871134,21.6357143 51.1278351,21.6357143 L44.7835052,21.6357143 L44.7835052,14.6714286 L50.0082474,14.6714286 L51.1278351,14.6714286 L51.1278351,14.5785714 Z M44.8768041,4.82857143 L50.1015464,4.82857143 C52.0608247,4.82857143 53.6469072,6.40714286 53.6469072,8.35714286 C53.6469072,10.3071429 52.1541237,11.7928571 50.1948454,11.8857143 L44.9701031,11.8857143 L44.8768041,4.82857143 Z M44.7835052,2.04285714 L41.9845361,2.04285714 L41.9845361,24.4214286 L43.3840206,24.4214286 L51.1278351,24.4214286 C54.5798969,24.4214286 57.4721649,21.5428571 57.4721649,18.1071429 C57.4721649,15.8785714 56.2592784,13.9285714 54.4865979,12.8142857 C55.6061856,11.7 56.3525773,10.1214286 56.3525773,8.35714286 C56.3525773,5.29285714 54.1134021,2.69285714 51.1278351,2.13571429 C50.7546392,2.04285714 50.3814433,2.04285714 50.0082474,2.04285714 L44.7835052,2.04285714 Z" id="Shape"></path>
                    <polygon id="Shape" points="88.7273196 2.04285714 73.0530928 2.04285714 73.0530928 4.82857143 79.3974227 4.82857143 79.3974227 24.4214286 82.1963918 24.4214286 82.1963918 4.82857143 88.7273196 4.82857143"></polygon>
                    <rect id="Rectangle-path" x="64.0963918" y="2.04285714" width="2.79896907" height="22.3785714"></rect>
                    <path d="M160.101031,24.4214286 L153.476804,14.3 C155.902577,13.4642857 157.768557,11.1428571 157.768557,8.35714286 C157.768557,5.29285714 155.529381,2.69285714 152.543814,2.13571429 C152.170619,2.04285714 151.797423,2.04285714 151.424227,2.04285714 L147.225773,2.04285714 L144.426804,2.04285714 L144.426804,24.4214286 L145.826289,24.4214286 L147.225773,24.4214286 L147.225773,21.6357143 L147.225773,14.6714286 L150.118041,14.6714286 L150.864433,15.7857143 L154.78299,21.8214286 L156.462371,24.4214286 L156.742268,24.4214286 L156.742268,24.5142857 L160.101031,24.4214286 Z M147.225773,4.82857143 L151.424227,4.82857143 C153.383505,4.82857143 154.969588,6.40714286 154.969588,8.35714286 C154.969588,10.3071429 153.383505,11.8857143 151.424227,11.8857143 L147.225773,11.8857143 L147.225773,4.82857143 Z" id="Shape"></path>
                    <path d="M14.3680412,18.1071429 L10.6360825,18.1071429 L10.6360825,16.7142857 L12.9685567,16.7142857 L12.9685567,15.2285714 L10.6360825,15.2285714 L10.6360825,13.8357143 L13.7149485,13.8357143 L14.3680412,13.8357143 C15.4876289,13.8357143 16.4206186,14.7642857 16.4206186,15.8785714 C16.4206186,17.1785714 15.4876289,18.1071429 14.3680412,18.1071429 Z M10.6360825,8.17142857 L13.7149485,8.17142857 C14.8345361,8.17142857 15.7675258,9.1 15.7675258,10.2142857 C15.7675258,11.3285714 14.8345361,12.2571429 13.7149485,12.2571429 L10.5427835,12.2571429 L10.5427835,8.17142857 L10.6360825,8.17142857 Z M16.3273196,12.9071429 C16.9804124,12.2571429 17.4469072,11.3285714 17.4469072,10.2142857 C17.4469072,8.35714286 16.1407216,6.87142857 14.3680412,6.5 C14.1814433,6.5 13.9015464,6.40714286 13.7149485,6.40714286 L10.6360825,6.40714286 L8.95670103,6.40714286 L8.95670103,15.2285714 L6.71752577,15.2285714 L6.71752577,16.7142857 L8.95670103,16.7142857 L8.95670103,19.6857143 L9.79639175,19.6857143 L14.3680412,19.6857143 C16.4206186,19.6857143 18.1,18.0142857 18.1,15.9714286 C18.1,14.7642857 17.4469072,13.5571429 16.3273196,12.9071429 Z" id="Shape"></path>
                    <polygon id="Shape" points="111.30567 2.04285714 104.214948 12.9071429 97.1242268 2.04285714 94.3252577 2.04285714 94.3252577 24.4214286 97.1242268 24.4214286 97.1242268 7.15 104.214948 18.0142857 111.30567 7.15 111.30567 24.4214286 114.104639 24.4214286 114.104639 2.04285714"></polygon>
                </g>
            </g>
        </g>
    </g>
</svg>