<?xml version="1.0" encoding="UTF-8"?>
<svg width="1500px" height="200px" viewBox="0 0 1500 200" version="1.1" xmlns="http://www.w3.org/2000/svg" xmlns:xlink="http://www.w3.org/1999/xlink">
    <!-- Generator: Sketch 49.3 (51167) - http://www.bohemiancoding.com/sketch -->
    <title>puzzel-slot</title>
    <desc>Created with Sketch.</desc>
    <defs>
        <linearGradient x1="49.9998778%" y1="26.3514169%" x2="49.9998778%" y2="126.839092%" id="linearGradient-1">
            <stop stop-color="#315297" offset="0%"></stop>
            <stop stop-color="#56BCDE" offset="100%"></stop>
        </linearGradient>
        <path d="M735.500767,162 L753.50094,129.649845 L735.500767,97.2990654 L699.50042,97.2990654 L681.500246,129.649845 L699.50042,162 L688.085809,162 L656,62.4957657 L740,1 L824,62.4957657 L824,62.5006643 L791.915811,162 L735.500767,162 Z" id="path-2"></path>
        <filter x="-18.5%" y="-12.4%" width="136.9%" height="138.5%" filterUnits="objectBoundingBox" id="filter-3">
            <feMorphology radius="1" operator="dilate" in="SourceAlpha" result="shadowSpreadOuter1"></feMorphology>
            <feOffset dx="0" dy="11" in="shadowSpreadOuter1" result="shadowOffsetOuter1"></feOffset>
            <feGaussianBlur stdDeviation="7.5" in="shadowOffsetOuter1" result="shadowBlurOuter1"></feGaussianBlur>
            <feColorMatrix values="0 0 0 0 0.282352941   0 0 0 0 0.68627451   0 0 0 0 0.839215686  0 0 0 0.3 0" type="matrix" in="shadowBlurOuter1"></feColorMatrix>
        </filter>
        <linearGradient x1="50%" y1="29.3387277%" x2="50%" y2="143.038504%" id="linearGradient-4">
            <stop stop-color="#315297" offset="0%"></stop>
            <stop stop-color="#56BCDE" offset="100%"></stop>
        </linearGradient>
        <path d="M1153.54749,164.547494 L1105,116 L1105,165 L1152.98359,165 C1145.83479,170.636587 1136.81018,174 1127,174 C1103.80404,174 1085,155.195959 1085,132 C1085,108.804041 1103.80404,90 1127,90 C1150.19596,90 1169,108.804041 1169,132 C1169,145.126024 1162.97866,156.845689 1153.54749,164.547494 Z" id="path-5"></path>
        <filter x="-26.2%" y="-16.7%" width="152.4%" height="152.4%" filterUnits="objectBoundingBox" id="filter-6">
            <feMorphology radius="1" operator="dilate" in="SourceAlpha" result="shadowSpreadOuter1"></feMorphology>
            <feOffset dx="0" dy="8" in="shadowSpreadOuter1" result="shadowOffsetOuter1"></feOffset>
            <feGaussianBlur stdDeviation="5" in="shadowOffsetOuter1" result="shadowBlurOuter1"></feGaussianBlur>
            <feColorMatrix values="0 0 0 0 0.337254902   0 0 0 0 0.737254902   0 0 0 0 0.870588235  0 0 0 0.3 0" type="matrix" in="shadowBlurOuter1"></feColorMatrix>
        </filter>
        <linearGradient x1="50%" y1="35.7142857%" x2="50%" y2="185.053943%" id="linearGradient-7">
            <stop stop-color="#315297" offset="0%"></stop>
            <stop stop-color="#56BCDE" offset="100%"></stop>
        </linearGradient>
        <path d="M446,111.64437 L431.648387,97 L411.351613,97 L397,111.64437 L397,132.355177 L410.371634,146 L362,146 L362,62 L446,62 L446,111.64437 Z M446,132.355177 L446,146 L432.628366,146 L446,132.355177 Z" id="path-8"></path>
        <filter x="-26.2%" y="-16.7%" width="152.4%" height="152.4%" filterUnits="objectBoundingBox" id="filter-9">
            <feMorphology radius="1" operator="dilate" in="SourceAlpha" result="shadowSpreadOuter1"></feMorphology>
            <feOffset dx="0" dy="8" in="shadowSpreadOuter1" result="shadowOffsetOuter1"></feOffset>
            <feGaussianBlur stdDeviation="5" in="shadowOffsetOuter1" result="shadowBlurOuter1"></feGaussianBlur>
            <feColorMatrix values="0 0 0 0 0.337254902   0 0 0 0 0.737254902   0 0 0 0 0.870588235  0 0 0 0.3 0" type="matrix" in="shadowBlurOuter1"></feColorMatrix>
        </filter>
        <linearGradient x1="50%" y1="26.9042969%" x2="50%" y2="113.932292%" id="linearGradient-10">
            <stop stop-color="#315297" offset="0%"></stop>
            <stop stop-color="#56BCDE" offset="100%"></stop>
        </linearGradient>
        <path d="M1403.13384,140 L1409.55277,120.659351 L1392.74783,108.706095 L1375.94322,120.659351 L1382.36182,140 L1338,140 L1379.49961,68 L1421,140 L1403.13384,140 Z" id="path-11"></path>
        <filter x="-26.5%" y="-19.4%" width="153.0%" height="161.1%" filterUnits="objectBoundingBox" id="filter-12">
            <feMorphology radius="1" operator="dilate" in="SourceAlpha" result="shadowSpreadOuter1"></feMorphology>
            <feOffset dx="0" dy="8" in="shadowSpreadOuter1" result="shadowOffsetOuter1"></feOffset>
            <feGaussianBlur stdDeviation="5" in="shadowOffsetOuter1" result="shadowBlurOuter1"></feGaussianBlur>
            <feColorMatrix values="0 0 0 0 0.337254902   0 0 0 0 0.737254902   0 0 0 0 0.870588235  0 0 0 0.3 0" type="matrix" in="shadowBlurOuter1"></feColorMatrix>
        </filter>
        <linearGradient x1="50%" y1="30.6265551%" x2="50%" y2="185.686011%" id="linearGradient-13">
            <stop stop-color="#315297" offset="0%"></stop>
            <stop stop-color="#56BCDE" offset="100%"></stop>
        </linearGradient>
        <path d="M23.9278118,167.255863 L42.4033026,135.297724 L60.9033026,167.297654 L23.9036519,167.297654 L23.9278118,167.255863 L4.90365186,134.148827 L23.9518259,101 L62.0481741,101 L81.0963481,134.148827 L62.0481741,167.297654 L23.9518259,167.297654 L23.9278118,167.255863 Z" id="path-14"></path>
        <filter x="-28.9%" y="-21.1%" width="157.7%" height="166.4%" filterUnits="objectBoundingBox" id="filter-15">
            <feMorphology radius="1" operator="dilate" in="SourceAlpha" result="shadowSpreadOuter1"></feMorphology>
            <feOffset dx="0" dy="8" in="shadowSpreadOuter1" result="shadowOffsetOuter1"></feOffset>
            <feGaussianBlur stdDeviation="5" in="shadowOffsetOuter1" result="shadowBlurOuter1"></feGaussianBlur>
            <feColorMatrix values="0 0 0 0 0.337254902   0 0 0 0 0.737254902   0 0 0 0 0.870588235  0 0 0 0.3 0" type="matrix" in="shadowBlurOuter1"></feColorMatrix>
        </filter>
    </defs>
    <g id="Page-1" stroke="none" stroke-width="1" fill="none" fill-rule="evenodd">
        <g id="1-muzeum_landing-page_footer-dk" transform="translate(15.000000, -1799.000000)">
            <g id="Group-10" transform="translate(-15.000000, 1799.000000)">
                <g id="puzzle-slot">
                    <rect id="area" x="0" y="1" width="1500" height="200"></rect>
                    <g id="Combined-Shape">
                        <use fill="black" fill-opacity="1" filter="url(#filter-3)" xlink:href="#path-2"></use>
                        <use fill="url(#linearGradient-1)" fill-rule="evenodd" xlink:href="#path-2"></use>
                    </g>
                    <g id="Combined-Shape">
                        <use fill="black" fill-opacity="1" filter="url(#filter-6)" xlink:href="#path-5"></use>
                        <use fill="url(#linearGradient-4)" fill-rule="evenodd" xlink:href="#path-5"></use>
                    </g>
                    <g id="Combined-Shape">
                        <use fill="black" fill-opacity="1" filter="url(#filter-9)" xlink:href="#path-8"></use>
                        <use fill="url(#linearGradient-7)" fill-rule="evenodd" xlink:href="#path-8"></use>
                    </g>
                    <g id="Combined-Shape">
                        <use fill="black" fill-opacity="1" filter="url(#filter-12)" xlink:href="#path-11"></use>
                        <use fill="url(#linearGradient-10)" fill-rule="evenodd" xlink:href="#path-11"></use>
                    </g>
                    <g id="Combined-Shape">
                        <use fill="black" fill-opacity="1" filter="url(#filter-15)" xlink:href="#path-14"></use>
                        <use fill="url(#linearGradient-13)" fill-rule="evenodd" xlink:href="#path-14"></use>
                    </g>
                </g>
            </g>
        </g>
    </g>
</svg>