<?xml version="1.0" encoding="UTF-8"?>
<svg width="23px" height="22px" viewBox="0 0 23 22" version="1.1" xmlns="http://www.w3.org/2000/svg" xmlns:xlink="http://www.w3.org/1999/xlink">
    <!-- Generator: Sketch 49.3 (51167) - http://www.bohemiancoding.com/sketch -->
    <title>icon/github</title>
    <desc>Created with Sketch.</desc>
    <defs></defs>
    <g id="Page-1" stroke="none" stroke-width="1" fill="none" fill-rule="evenodd">
        <g id="1-muzeum_landing-page_footer-dk" transform="translate(-1160.000000, -3091.000000)" fill="#54B6E8">
            <g id="section/footer" transform="translate(0.000000, 2927.000000)">
                <g id="right" transform="translate(975.000000, 128.000000)">
                    <g id="Group-4" transform="translate(83.000000, 36.000000)">
                        <g id="icon/github" transform="translate(102.459016, 0.000000)">
                            <path d="M11.1260929,-3.55271368e-15 C4.98196721,-3.55271368e-15 -0.000273224044,5.0139375 -0.000273224044,11.2000625 C-0.000273224044,16.1473125 3.18756831,20.3445 7.60969945,21.8260625 C8.16639344,21.9285 8.3692623,21.5826875 8.3692623,21.2856875 C8.3692623,21.0203125 8.35969945,20.315625 8.35423497,19.3813125 C5.25928962,20.0578125 4.60628415,17.8798125 4.60628415,17.8798125 C4.10013661,16.5859375 3.37062842,16.2421875 3.37062842,16.2421875 C2.36038251,15.547125 3.44713115,15.560875 3.44713115,15.560875 C4.56393443,15.640625 5.15136612,16.7151875 5.15136612,16.7151875 C6.14385246,18.426375 7.75519126,17.9320625 8.3897541,17.6460625 C8.49084699,16.922125 8.77773224,16.4285 9.09603825,16.1486875 C6.62540984,15.866125 4.02773224,14.905 4.02773224,10.613625 C4.02773224,9.39125 4.46147541,8.391625 5.17322404,7.6085625 C5.05846995,7.3253125 4.67663934,6.1868125 5.2818306,4.64475 C5.2818306,4.64475 6.21625683,4.343625 8.34193989,5.792875 C9.22923497,5.544 10.1814208,5.42025 11.127459,5.4154375 C12.0721311,5.42025 13.0243169,5.544 13.9129781,5.792875 C16.0372951,4.343625 16.9696721,4.64475 16.9696721,4.64475 C17.5769126,6.1868125 17.195082,7.3253125 17.0803279,7.6085625 C17.7934426,8.391625 18.2244536,9.39125 18.2244536,10.613625 C18.2244536,14.916 15.6226776,15.8626875 13.1438525,16.13975 C13.5434426,16.4855625 13.8993169,17.1689375 13.8993169,18.2139375 C13.8993169,19.710625 13.8856557,20.9185625 13.8856557,21.2856875 C13.8856557,21.5854375 14.0857923,21.934 14.6506831,21.8246875 C19.0680328,20.340375 22.2538251,16.1459375 22.2538251,11.2000625 C22.2538251,5.0139375 17.2715847,-3.55271368e-15 11.1260929,-3.55271368e-15" id="Fill-1"></path>
                        </g>
                    </g>
                </g>
            </g>
        </g>
    </g>
</svg>